What are Brazilian plant pathologists doing? A text-analysis of scientific poster titles
…
As we can see above there are some integers that I want to remove together with the entire ID column.

cbfito_words %>%
  filter(!str_detect(word, "[0-10000]")) %>% 
  select(word)

## # A tibble: 9,757 x 1
##    word       
##    <chr>      
##  1 screening  
##  2 da         
##  3 atividade  
##  4 antifúngica
##  5 in         
##  6 vitro      
##  7 de         
##  8 óleos      
##  9 essenciais 
## 10 sobre      
## # … with 9,747 more rows
…
An easy way to remove all stopwords in both languages is using the anti_join function.

cbfito_words2 <- cbfito_words %>%
  anti_join(stopwords_pt) %>%
  anti_join(stop_words) # this is a list of English stopwords from the tidytext pkg

Let’s have another close look at the list of words and check if there are some field-specific words that I want to eliminate.

cbfito_words2

## # A tibble: 6,330 x 2
##    ID     word         
##    <chr>  <chr>        
##  1 ID 381 screening    
##  2 ID 381 atividade    
##  3 ID 381 antifúngica  
##  4 ID 381 vitro        
##  5 ID 381 óleos        
##  6 ID 381 essenciais   
##  7 ID 381 sobre        
##  8 ID 381 fitopatógenos
##  9 ID 253 desempenho   
## 10 ID 253 fungicidas   
## # … with 6,320 more rows

I went through the list and could find a few unwanted words that are not of relevance for this summary. I did it manually considering that I had “only” 2,000 words, but I went through only those cited at least twice. The filter function can be used to eliminate those words from the list of words.

words_freq <- cbfito_words2 %>%
  filter(!word %in% c(
    "spp", "sp", "sob", "sobre", "pv", "uso", "diferentes", "estado", "sob", "brasil", "brazil", "doenças",  "desenvolvimento", "soybean", "pós", "contra", "identification", "diversity", "formas", "hosts")) %>%
  count(word, sort = TRUE) %>%
  mutate(word = reorder(word, n))

words_freq

## # A tibble: 2,136 x 2
##    word               n
##    <fct>          <int>
##  1 controle         122
##  2 avaliação         70
##  3 sementes          70
##  4 soja              65
##  5 colletotrichum    60
##  6 fungicidas        52
##  7 fusarium          50
##  8 vitro             49
##  9 plantas           43
## 10 milho             42
## # … with 2,126 more rows
…
