Fitting Linear and Quadratic Models of Nematode Population Responses to time and Temperature | Open Plant Pathology
…
library(tidyverse)

We will use the set.seed function for reproducibility.

set.seed(52)

Data Import and Inspection

Import the data using read.csv from readr, which is a part of the tidyverse.

nema <- read_csv("data/Degree Days Relationships.csv")

nema

## # A tibble: 36 x 9
##    Weeks  Days Temperature Degree_days Unplanted Gatcher GS50a  Potam
##    <int> <int>       <dbl>       <int>     <dbl>   <dbl> <dbl>  <dbl>
##  1     8    56        15.0         280     5.748   6.773 6.691  7.613
##  2     8    56        20.0         560     5.915   9.513 7.420  9.285
##  3     8    56        22.5         700     6.381   9.956 8.214  9.024
##  4     8    56        25.0         840     6.510   9.354 8.254  9.732
##  5     8    56        27.5         980     6.056   8.196 8.003  8.822
##  6     8    56        30.0        1120     6.326   6.515 6.757  6.957
##  7    10    70        15.0         350     5.847   7.435 6.043  5.972
##  8    10    70        20.0         700     6.157  10.338 8.915 10.284
##  9    10    70        22.5         875     6.191  10.423 9.183 10.691
## 10    10    70        25.0        1050     6.364  10.580 9.045 10.487
## # ... with 26 more rows, and 1 more variables: Suneca <dbl>

You can see that each of the varieties have their own column in the original data format (wide). Using gather() from the tidyr package (part of the tidyverse), convert from to long format where the varieties are all listed in a single column, “Variety”. The data paramter tells R which data frame to gather. The key parameter is the name of the new column to be created called “Variety”, value specifies the column that will contain the values that go with the varieties, “Population”. The last portion tells gather() which columns are to be gathered. Using the “:” means take the columns from “Unplanted” to “Suneca” and gather them without needing to type all the column names.

nema_long <-
  gather(data = nema,
         key = Variety,
         value = Population,
         Unplanted:Suneca)

nema_long

## # A tibble: 180 x 6
##    Weeks  Days Temperature Degree_days   Variety Population
##    <int> <int>       <dbl>       <int>     <chr>      <dbl>
##  1     8    56        15.0         280 Unplanted      5.748
##  2     8    56        20.0         560 Unplanted      5.915
##  3     8    56        22.5         700 Unplanted      6.381
##  4     8    56        25.0         840 Unplanted      6.510
##  5     8    56        27.5         980 Unplanted      6.056
##  6     8    56        30.0        1120 Unplanted      6.326
##  7    10    70        15.0         350 Unplanted      5.847
##  8    10    70        20.0         700 Unplanted      6.157
##  9    10    70        22.5         875 Unplanted      6.191
## 10    10    70        25.0        1050 Unplanted      6.364
## # ... with 170 more rows
…
